Warming Stripes
…
Select Columns 
 Year and Year Average temperature

temp_victoria_yr <- climate_victoria %>% select(LOCAL_YEAR, LOCAL_MONTH, 
                                                LOCAL_DAY, MEAN_TEMPERATURE, 
                                                MIN_TEMPERATURE, MAX_TEMPERATURE)
temp_victoria_yr

## # A tibble: 29,738 x 6
##    LOCAL_YEAR LOCAL_MONTH LOCAL_DAY MEAN_TEMPERATURE MIN_TEMPERATURE
##         <dbl>       <dbl>     <dbl>            <dbl>           <dbl>
##  1       1940           7         1               NA              NA
##  2       1940           7         2               NA              NA
##  3       1940           7         3               NA              NA
##  4       1940           7         4               NA              NA
##  5       1940           7         5               NA              NA
##  6       1940           7         6               NA              NA
##  7       1940           7         7               NA              NA
##  8       1940           7         8               NA              NA
##  9       1940           7         9               NA              NA
## 10       1940           7        10               NA              NA
## #  with 29,728 more rows, and 1 more variable: MAX_TEMPERATURE <dbl>

rename the columns

format: newname = oldname

temp_victoria_yr <- temp_victoria_yr %>% rename(Year = LOCAL_YEAR, Month = LOCAL_MONTH, 
                                                Day = LOCAL_DAY, TempMean = MEAN_TEMPERATURE, 
                                                TempMin = MIN_TEMPERATURE, TempMax = MAX_TEMPERATURE)
temp_victoria_yr

## # A tibble: 29,738 x 6
##     Year Month   Day TempMean TempMin TempMax
##    <dbl> <dbl> <dbl>    <dbl>   <dbl>   <dbl>
##  1  1940     7     1       NA      NA      NA
##  2  1940     7     2       NA      NA      NA
##  3  1940     7     3       NA      NA      NA
##  4  1940     7     4       NA      NA      NA
##  5  1940     7     5       NA      NA      NA
##  6  1940     7     6       NA      NA      NA
##  7  1940     7     7       NA      NA      NA
##  8  1940     7     8       NA      NA      NA
##  9  1940     7     9       NA      NA      NA
## 10  1940     7    10       NA      NA      NA
## #  with 29,728 more rows
…
Use the ifelse( ) function to replace missing values 999.9 with NA

temp_victoria_yr <- mutate(temp_victoria_yr, 
                           TempMean = ifelse(TempMean == 999.9, NA, TempMean))
temp_victoria_yr

## # A tibble: 29,738 x 6
##     Year Month   Day TempMean TempMin TempMax
##    <dbl> <dbl> <dbl>    <dbl>   <dbl>   <dbl>
##  1  1940     7     1       NA      NA      NA
##  2  1940     7     2       NA      NA      NA
##  3  1940     7     3       NA      NA      NA
##  4  1940     7     4       NA      NA      NA
##  5  1940     7     5       NA      NA      NA
##  6  1940     7     6       NA      NA      NA
##  7  1940     7     7       NA      NA      NA
##  8  1940     7     8       NA      NA      NA
##  9  1940     7     9       NA      NA      NA
## 10  1940     7    10       NA      NA      NA
## #  with 29,728 more rows
…
Filter for one year

temp_victoria_2021 <- temp_victoria_yr[temp_victoria_yr$Date >= "2021-01-01" 
                                       & temp_victoria_yr$Date <= "2021-12-31", ]
temp_victoria_2021

## # A tibble: 365 x 7
##     Year Month   Day TempMean TempMin TempMax Date      
##    <dbl> <dbl> <dbl>    <dbl>   <dbl>   <dbl> <date>    
##  1  2021     1     1      8.9     7.2    10.6 2021-01-01
##  2  2021     1     2      8.2     6.8     9.5 2021-01-02
##  3  2021     1     3      6       2.2     9.8 2021-01-03
##  4  2021     1     4      7.3     4.9     9.6 2021-01-04
##  5  2021     1     5      3.8    -0.1     7.7 2021-01-05
##  6  2021     1     6      5.9     3       8.8 2021-01-06
##  7  2021     1     7      4.2     1.1     7.2 2021-01-07
##  8  2021     1     8      5.1     0.9     9.2 2021-01-08
##  9  2021     1     9      3.2     0.2     6.1 2021-01-09
## 10  2021     1    10      6.5     4.3     8.7 2021-01-10
## #  with 355 more rows
…
Convert year variable to a date object

for ease of use with Lubridate and ggplot2 packages

tidyverse::str_c() function enables character combinations by specifiying a separator sep=“-”

lubridate::ymd() function converts date character to Date object

groupby_temp_victoria <- mutate(groupby_temp_victoria, 
                           date = str_c(Year, "01-01", sep = "-") %>%
                           ymd())
groupby_temp_victoria

## # A tibble: 83 x 3
##     Year TempMean date      
##    <dbl>    <dbl> <date>    
##  1  1940    11.3  1940-01-01
##  2  1941    10.9  1941-01-01
##  3  1942    10.3  1942-01-01
##  4  1943     9.57 1943-01-01
##  5  1944    10.1  1944-01-01
##  6  1945     9.69 1945-01-01
##  7  1946     9.35 1946-01-01
##  8  1947     9.84 1947-01-01
##  9  1948     8.98 1948-01-01
## 10  1949     9.04 1949-01-01
## #  with 73 more rows
…
## tibble [81  4] (S3: tbl_df/tbl/data.frame)
##  $ Year    : num [1:81] 1941 1942 1943 1944 1945 ...
##  $ TempMean: num [1:81] 10.92 10.29 9.57 10.12 9.69 ...
##  $ date    : Date[1:81], format: "1941-01-01" "1942-01-01" ...
##  $ Norm    : chr [1:81] "9.7" "9.7" "9.7" "9.7" ...

# change chr >> num
groupby_temp_victoria$Norm <- as.numeric(groupby_temp_victoria$Norm)

groupby_temp_victoria$Anomaly <- (groupby_temp_victoria$TempMean - groupby_temp_victoria$Norm)
groupby_temp_victoria

## # A tibble: 81 x 5
##     Year TempMean date        Norm  Anomaly
##    <dbl>    <dbl> <date>     <dbl>    <dbl>
##  1  1941    10.9  1941-01-01   9.7  1.22   
##  2  1942    10.3  1942-01-01   9.7  0.587  
##  3  1943     9.57 1943-01-01   9.7 -0.132  
##  4  1944    10.1  1944-01-01   9.7  0.416  
##  5  1945     9.69 1945-01-01   9.7 -0.00932
##  6  1946     9.35 1946-01-01   9.7 -0.348  
##  7  1947     9.84 1947-01-01   9.7  0.138  
##  8  1948     8.98 1948-01-01   9.7 -0.724  
##  9  1949     9.04 1949-01-01   9.7 -0.665  
## 10  1950     8.54 1950-01-01   9.7 -1.16   
## #  with 71 more rows
…
